digraph "frontend" {
edge ["dir"="forward"]
graph ["rankdir"="LR","compound"="true","overlap"="false"]
"DonneesVuePartie" ["label"="DonneesVuePartie","style"="filled","fillcolor"="white","shape"="box"]
subgraph "cluster_Initialisation__container" {
edge ["dir"="none"]
graph ["margin"="40","style"="invis"]
subgraph "cluster_Initialisation" {
edge ["dir"="forward"]
graph ["rankdir"="LR","label"="Initialisation","style"="filled","fillcolor"="gray","penwidth"="3.0","fontsize"="18.0"]
"Initialisation_viewLoader[VueFileAttente]" ["label"="viewLoader[VueFileAttente]","style"="filled","fillcolor"="white","shape"="box"]
"Initialisation_installerVueFileAttente" ["label"="installerVueFileAttente","style"="filled","fillcolor"="white","shape"="box"]
"Initialisation_viewLoader[FragmentRendezVousComplet]" ["label"="viewLoader[FragmentRendezVousComplet]","style"="filled","fillcolor"="white","shape"="box"]
"Initialisation_installerVueRacine" ["label"="installerVueRacine","style"="filled","fillcolor"="white","shape"="box"]
"Initialisation_viewLoader[FragmentRendezVous]" ["label"="viewLoader[FragmentRendezVous]","style"="filled","fillcolor"="white","shape"="box"]
"Initialisation_VueFileAttente" ["label"="VueFileAttente","style"="filled","fillcolor"="white","shape"="box"]
"Initialisation_viewLoader[VuePartie]" ["label"="viewLoader[VuePartie]","style"="filled","fillcolor"="white","shape"="box"]
"Initialisation_window" ["label"="window","style"="filled","fillcolor"="white","shape"="box"]
"Initialisation_viewLoader[VueRacine]" ["label"="viewLoader[VueRacine]","style"="filled","fillcolor"="white","shape"="box"]
"Initialisation_VuePartie" ["label"="VuePartie","style"="filled","fillcolor"="white","shape"="box"]
"Initialisation_afficherFenetre" ["label"="afficherFenetre","style"="filled","fillcolor"="white","shape"="box"]
"Initialisation_VueRacine" ["label"="VueRacine","style"="filled","fillcolor"="white","shape"="box"]
}
}
subgraph "cluster_Navigation__container" {
edge ["dir"="none"]
graph ["margin"="40","style"="invis"]
subgraph "cluster_Navigation" {
edge ["dir"="forward"]
graph ["rankdir"="LR","label"="Navigation","style"="filled","fillcolor"="gray","penwidth"="3.0","fontsize"="18.0"]
"Navigation_event[EvtAfficherFileAttente]" ["label"="event[EvtAfficherFileAttente]","style"="filled","fillcolor"="white"]
"Navigation_afficherVueFileAttente" ["label"="afficherVueFileAttente","style"="filled","fillcolor"="white","shape"="box"]
"Navigation_afficherVuePartie" ["label"="afficherVuePartie","style"="filled","fillcolor"="white","shape"="box"]
"Navigation_event[EvtAfficherPartie]" ["label"="event[EvtAfficherPartie]","style"="filled","fillcolor"="white"]
}
}
subgraph "cluster_AfficherFileAttente__container" {
edge ["dir"="none"]
graph ["margin"="40","style"="invis"]
subgraph "cluster_AfficherFileAttente" {
edge ["dir"="forward"]
graph ["rankdir"="LR","label"="AfficherFileAttente","style"="filled","fillcolor"="gray","penwidth"="3.0","fontsize"="18.0"]
"AfficherFileAttente_modified[ModeleFileAttente]" ["label"="modified[ModeleFileAttente]","style"="filled","fillcolor"="white"]
"AfficherFileAttente_afficherFileAttente" ["label"="afficherFileAttente","style"="filled","fillcolor"="white","shape"="box"]
}
}
subgraph "cluster_AfficherPartie__container" {
edge ["dir"="none"]
graph ["margin"="40","style"="invis"]
subgraph "cluster_AfficherPartie" {
edge ["dir"="forward"]
graph ["rankdir"="LR","label"="AfficherPartie","style"="filled","fillcolor"="gray","penwidth"="3.0","fontsize"="18.0"]
"AfficherPartie_event[EvtClicSouris]" ["label"="event[EvtClicSouris]","style"="filled","fillcolor"="white"]
"AfficherPartie_reagirClicSouris" ["label"="reagirClicSouris","style"="filled","fillcolor"="white","shape"="box"]
"AfficherPartie_message[MsgActionAutreJoueur/f3uv]" ["label"="message[MsgActionAutreJoueur/f3uv]","style"="filled","fillcolor"="white"]
"AfficherPartie_reagirActionAutreJoueur" ["label"="reagirActionAutreJoueur","style"="filled","fillcolor"="white","shape"="box"]
"AfficherPartie_reagirActionJoueur" ["label"="reagirActionJoueur","style"="filled","fillcolor"="white","shape"="box"]
"AfficherPartie_modified[ModelePartie/f3uv]" ["label"="modified[ModelePartie/f3uv]","style"="filled","fillcolor"="white"]
"AfficherPartie_clock[nextTick]" ["label"="clock[nextTick]","style"="filled","fillcolor"="white"]
"AfficherPartie_event[EvtActionJoueur]" ["label"="event[EvtActionJoueur]","style"="filled","fillcolor"="white"]
"AfficherPartie_observerModelePartie" ["label"="observerModelePartie","style"="filled","fillcolor"="white","shape"="box"]
"AfficherPartie_prochaineImagePartie" ["label"="prochaineImagePartie","style"="filled","fillcolor"="white","shape"="box"]
}
}
"DonneesVuePartie" -> "AfficherPartie_event[EvtClicSouris]" ["label"="","lhead"="cluster_AfficherPartie"]
"Initialisation_viewLoader[VueFileAttente]" -> "Initialisation_VueFileAttente" ["label"=""]
"Initialisation_viewLoader[VueFileAttente]" -> "DonneesVuePartie" ["label"="","ltail"="cluster_Initialisation"]
"Initialisation_viewLoader[VueFileAttente]" -> "AfficherFileAttente_modified[ModeleFileAttente]" ["label"="","ltail"="cluster_Initialisation","lhead"="cluster_AfficherFileAttente","penwidth"="3"]
"Initialisation_viewLoader[VueFileAttente]" -> "Navigation_event[EvtAfficherFileAttente]" ["label"="","ltail"="cluster_Initialisation","lhead"="cluster_Navigation","penwidth"="3"]
"Navigation_event[EvtAfficherFileAttente]" -> "Navigation_afficherVueFileAttente" ["label"="","style"="dashed"]
"AfficherFileAttente_modified[ModeleFileAttente]" -> "AfficherFileAttente_afficherFileAttente" ["label"="","style"="dashed"]
"Navigation_event[EvtAfficherPartie]" -> "Navigation_afficherVuePartie" ["label"="","style"="dashed"]
"AfficherPartie_event[EvtClicSouris]" -> "AfficherPartie_reagirClicSouris" ["label"="","style"="dashed"]
"AfficherPartie_message[MsgActionAutreJoueur/f3uv]" -> "AfficherPartie_reagirActionAutreJoueur" ["label"="","style"="dashed"]
"AfficherPartie_modified[ModelePartie/f3uv]" -> "AfficherPartie_observerModelePartie" ["label"="","style"="dashed"]
"AfficherPartie_clock[nextTick]" -> "AfficherPartie_prochaineImagePartie" ["label"="","style"="dashed"]
"AfficherPartie_event[EvtActionJoueur]" -> "AfficherPartie_reagirActionJoueur" ["label"="","style"="dashed"]
"Initialisation_VueFileAttente" -> "Initialisation_installerVueFileAttente" ["label"=""]
"Initialisation_viewLoader[FragmentRendezVousComplet]" -> "Initialisation_VueFileAttente" ["label"=""]
"Initialisation_installerVueRacine" -> "Initialisation_installerVueFileAttente" ["label"=""]
"Initialisation_viewLoader[FragmentRendezVous]" -> "Initialisation_VueFileAttente" ["label"=""]
"Initialisation_viewLoader[VuePartie]" -> "Initialisation_VuePartie" ["label"=""]
"Initialisation_window" -> "Initialisation_afficherFenetre" ["label"=""]
"Initialisation_window" -> "Initialisation_installerVueRacine" ["label"=""]
"Initialisation_viewLoader[VueRacine]" -> "Initialisation_VueRacine" ["label"=""]
"Initialisation_VueRacine" -> "Initialisation_installerVueRacine" ["label"=""]
}