digraph "frontend" {
edge ["dir"="forward"]
graph ["rankdir"="LR","compound"="true","overlap"="false"]
"snapshot[ModelePartie/1]" ["label"="snapshot[ModelePartie/1]","style"="filled","fillcolor"="white","shape"="box"]
"DonneesVuePartie" ["label"="DonneesVuePartie","style"="filled","fillcolor"="white","shape"="box"]
subgraph "cluster_AfficherPartie/1__container" {
edge ["dir"="none"]
graph ["margin"="40","style"="invis"]
subgraph "cluster_AfficherPartie/1" {
edge ["dir"="forward"]
graph ["rankdir"="LR","label"="AfficherPartie/1","style"="filled","fillcolor"="gray","penwidth"="3.0","fontsize"="18.0"]
"AfficherPartie/1_modified[ModelePartie/1]" ["label"="modified[ModelePartie/1]","style"="filled","fillcolor"="white"]
"AfficherPartie/1_joueurVeutPauser" ["label"="joueurVeutPauser","style"="filled","fillcolor"="white","shape"="box"]
"AfficherPartie/1_imagePartieSurPause" ["label"="imagePartieSurPause","style"="filled","fillcolor"="white","shape"="box"]
"AfficherPartie/1_reprendrePartie" ["label"="reprendrePartie","style"="filled","fillcolor"="white","shape"="box"]
"AfficherPartie/1_observerModelePartie" ["label"="observerModelePartie","style"="filled","fillcolor"="white","shape"="box"]
"AfficherPartie/1_joueurVeutJouer" ["label"="joueurVeutJouer","style"="filled","fillcolor"="white","shape"="box"]
"AfficherPartie/1_message[MsgReprendrePartie/1]" ["label"="message[MsgReprendrePartie/1]","style"="filled","fillcolor"="white"]
"AfficherPartie/1_event[EvtQuitterPartie]" ["label"="event[EvtQuitterPartie]","style"="filled","fillcolor"="white"]
"AfficherPartie/1_event[EvtJoueurVeutPauser]" ["label"="event[EvtJoueurVeutPauser]","style"="filled","fillcolor"="white"]
"AfficherPartie/1_event[EvtDoitRedessiner]" ["label"="event[EvtDoitRedessiner]","style"="filled","fillcolor"="white"]
"AfficherPartie/1_event[EvtJoueurVeutJouer]" ["label"="event[EvtJoueurVeutJouer]","style"="filled","fillcolor"="white"]
"AfficherPartie/1_quitterPartie" ["label"="quitterPartie","style"="filled","fillcolor"="white","shape"="box"]
}
}
subgraph "cluster_JouerPartie/1__container" {
edge ["dir"="none"]
graph ["margin"="40","style"="invis"]
subgraph "cluster_JouerPartie/1" {
edge ["dir"="forward"]
graph ["rankdir"="LR","label"="JouerPartie/1","style"="filled","fillcolor"="gray","penwidth"="3.0","fontsize"="18.0"]
"JouerPartie/1_event[EvtClicSouris]" ["label"="event[EvtClicSouris]","style"="filled","fillcolor"="white"]
"JouerPartie/1_clock[nextTick]" ["label"="clock[nextTick]","style"="filled","fillcolor"="white"]
"JouerPartie/1_event[EvtActionJoueur]" ["label"="event[EvtActionJoueur]","style"="filled","fillcolor"="white"]
"JouerPartie/1_prochaineImagePartie" ["label"="prochaineImagePartie","style"="filled","fillcolor"="white","shape"="box"]
"JouerPartie/1_message[MsgSuspendrePartie/1]" ["label"="message[MsgSuspendrePartie/1]","style"="filled","fillcolor"="white"]
"JouerPartie/1_message[MsgPropagerActionJoueur/1]" ["label"="message[MsgPropagerActionJoueur/1]","style"="filled","fillcolor"="white"]
"JouerPartie/1_recevoirActionAutreJoueur" ["label"="recevoirActionAutreJoueur","style"="filled","fillcolor"="white","shape"="box"]
"JouerPartie/1_pauserPartie" ["label"="pauserPartie","style"="filled","fillcolor"="white","shape"="box"]
"JouerPartie/1_reagirActionJoueur" ["label"="reagirActionJoueur","style"="filled","fillcolor"="white","shape"="box"]
"JouerPartie/1_reagirClicSouris" ["label"="reagirClicSouris","style"="filled","fillcolor"="white","shape"="box"]
}
}
subgraph "cluster_Initialisation__container" {
edge ["dir"="none"]
graph ["margin"="40","style"="invis"]
subgraph "cluster_Initialisation" {
edge ["dir"="forward"]
graph ["rankdir"="LR","label"="Initialisation","style"="filled","fillcolor"="gray","penwidth"="3.0","fontsize"="18.0"]
"Initialisation_viewLoader[VueFileAttente]" ["label"="viewLoader[VueFileAttente]","style"="filled","fillcolor"="white","shape"="box"]
"Initialisation_installerVueFileAttente" ["label"="installerVueFileAttente","style"="filled","fillcolor"="white","shape"="box"]
"Initialisation_installerVueRacine" ["label"="installerVueRacine","style"="filled","fillcolor"="white","shape"="box"]
"Initialisation_VueFileAttente" ["label"="VueFileAttente","style"="filled","fillcolor"="white","shape"="box"]
"Initialisation_window" ["label"="window","style"="filled","fillcolor"="white","shape"="box"]
"Initialisation_viewLoader[VueRacine]" ["label"="viewLoader[VueRacine]","style"="filled","fillcolor"="white","shape"="box"]
"Initialisation_afficherFenetre" ["label"="afficherFenetre","style"="filled","fillcolor"="white","shape"="box"]
"Initialisation_VueRacine" ["label"="VueRacine","style"="filled","fillcolor"="white","shape"="box"]
}
}
subgraph "cluster_Navigation__container" {
edge ["dir"="none"]
graph ["margin"="40","style"="invis"]
subgraph "cluster_Navigation" {
edge ["dir"="forward"]
graph ["rankdir"="LR","label"="Navigation","style"="filled","fillcolor"="gray","penwidth"="3.0","fontsize"="18.0"]
"Navigation_viewLoader[VuePartie]" ["label"="viewLoader[VuePartie]","style"="filled","fillcolor"="white","shape"="box"]
"Navigation_afficherVueFileAttente" ["label"="afficherVueFileAttente","style"="filled","fillcolor"="white","shape"="box"]
"Navigation_event[EvtAfficherFileAttente]" ["label"="event[EvtAfficherFileAttente]","style"="filled","fillcolor"="white"]
"Navigation_VuePartie" ["label"="VuePartie","style"="filled","fillcolor"="white","shape"="box"]
"Navigation_afficherVuePartie" ["label"="afficherVuePartie","style"="filled","fillcolor"="white","shape"="box"]
"Navigation_event[EvtAfficherPartie]" ["label"="event[EvtAfficherPartie]","style"="filled","fillcolor"="white"]
}
}
subgraph "cluster_AfficherFileAttente__container" {
edge ["dir"="none"]
graph ["margin"="40","style"="invis"]
subgraph "cluster_AfficherFileAttente" {
edge ["dir"="forward"]
graph ["rankdir"="LR","label"="AfficherFileAttente","style"="filled","fillcolor"="gray","penwidth"="3.0","fontsize"="18.0"]
"AfficherFileAttente_viewLoader[FragmentRendezVous]" ["label"="viewLoader[FragmentRendezVous]","style"="filled","fillcolor"="white","shape"="box"]
"AfficherFileAttente_viewLoader[FragmentRendezVousComplet]" ["label"="viewLoader[FragmentRendezVousComplet]","style"="filled","fillcolor"="white","shape"="box"]
"AfficherFileAttente_modified[ModeleFileAttente]" ["label"="modified[ModeleFileAttente]","style"="filled","fillcolor"="white"]
"AfficherFileAttente_afficherFileAttente" ["label"="afficherFileAttente","style"="filled","fillcolor"="white","shape"="box"]
}
}
"snapshot[ModelePartie/1]" -> "DonneesVuePartie" ["label"=""]
"DonneesVuePartie" -> "AfficherPartie/1_modified[ModelePartie/1]" ["label"="","lhead"="cluster_AfficherPartie/1"]
"AfficherPartie/1_modified[ModelePartie/1]" -> "AfficherPartie/1_observerModelePartie" ["label"="","style"="dashed"]
"AfficherPartie/1_reprendrePartie" -> "JouerPartie/1_event[EvtClicSouris]" ["label"="","lhead"="cluster_JouerPartie/1"]
"JouerPartie/1_event[EvtClicSouris]" -> "JouerPartie/1_reagirClicSouris" ["label"="","style"="dashed"]
"JouerPartie/1_clock[nextTick]" -> "JouerPartie/1_prochaineImagePartie" ["label"="","style"="dashed"]
"JouerPartie/1_event[EvtActionJoueur]" -> "JouerPartie/1_reagirActionJoueur" ["label"="","style"="dashed"]
"JouerPartie/1_message[MsgSuspendrePartie/1]" -> "JouerPartie/1_pauserPartie" ["label"="","style"="dashed"]
"JouerPartie/1_message[MsgPropagerActionJoueur/1]" -> "JouerPartie/1_recevoirActionAutreJoueur" ["label"="","style"="dashed"]
"AfficherPartie/1_message[MsgReprendrePartie/1]" -> "AfficherPartie/1_reprendrePartie" ["label"="","style"="dashed"]
"AfficherPartie/1_event[EvtQuitterPartie]" -> "AfficherPartie/1_quitterPartie" ["label"="","style"="dashed"]
"AfficherPartie/1_event[EvtJoueurVeutPauser]" -> "AfficherPartie/1_joueurVeutPauser" ["label"="","style"="dashed"]
"AfficherPartie/1_event[EvtDoitRedessiner]" -> "AfficherPartie/1_imagePartieSurPause" ["label"="","style"="dashed"]
"AfficherPartie/1_event[EvtJoueurVeutJouer]" -> "AfficherPartie/1_joueurVeutJouer" ["label"="","style"="dashed"]
"Initialisation_viewLoader[VueFileAttente]" -> "Initialisation_VueFileAttente" ["label"=""]
"Initialisation_viewLoader[VueFileAttente]" -> "AfficherFileAttente_viewLoader[FragmentRendezVous]" ["label"="","ltail"="cluster_Initialisation","lhead"="cluster_AfficherFileAttente","penwidth"="3"]
"Initialisation_viewLoader[VueFileAttente]" -> "Navigation_viewLoader[VuePartie]" ["label"="","ltail"="cluster_Initialisation","lhead"="cluster_Navigation","penwidth"="3"]
"Navigation_viewLoader[VuePartie]" -> "Navigation_VuePartie" ["label"=""]
"AfficherFileAttente_viewLoader[FragmentRendezVous]" -> "AfficherFileAttente_afficherFileAttente" ["label"=""]
"Navigation_VuePartie" -> "Navigation_afficherVuePartie" ["label"=""]
"Navigation_afficherVuePartie" -> "DonneesVuePartie" ["label"=""]
"Navigation_event[EvtAfficherFileAttente]" -> "Navigation_afficherVueFileAttente" ["label"="","style"="dashed"]
"Navigation_event[EvtAfficherPartie]" -> "Navigation_afficherVuePartie" ["label"="","style"="dashed"]
"AfficherFileAttente_viewLoader[FragmentRendezVousComplet]" -> "AfficherFileAttente_afficherFileAttente" ["label"=""]
"AfficherFileAttente_modified[ModeleFileAttente]" -> "AfficherFileAttente_afficherFileAttente" ["label"="","style"="dashed"]
"Initialisation_VueFileAttente" -> "Initialisation_installerVueFileAttente" ["label"=""]
"Initialisation_window" -> "Initialisation_afficherFenetre" ["label"=""]
"Initialisation_window" -> "Initialisation_installerVueRacine" ["label"=""]
"Initialisation_viewLoader[VueRacine]" -> "Initialisation_VueRacine" ["label"=""]
"Initialisation_VueRacine" -> "Initialisation_installerVueRacine" ["label"=""]
"Initialisation_VueRacine" -> "Initialisation_installerVueFileAttente" ["label"=""]
}