{
  "_C": "ModeleMaPage",
  "estCeVrai": false,
  "maListe": [
    {
      "_C": "MaValeur",
      "uneChaine": "FL0Z",
      "unChiffre": 7
    },
    {
      "_C": "MaValeur",
      "uneChaine": "MTLe",
      "unChiffre": 2
    }
  ]
}
