digraph "MonArbre_test04_ok" {
graph ["rankdir"="LR","compound"="true","ranksep"="1.0","nodesep"="1.0"]
"/" ["label"="<_C>MonArbre|{racine|<racine_racine>}","style"="filled","fillcolor"="white","shape"="record"]
"/racine" ["label"="<_C>MonNoeud|{valeur|a}|{enfantGauche|null}|{enfantDroit|<enfantDroit_enfantDroit>}","style"="filled","fillcolor"="white","shape"="record"]
"/racine/enfantDroit" ["label"="<_C>MonNoeud|{valeur|b}|{enfantGauche|null}|{enfantDroit|<enfantDroit_enfantDroit>}","style"="filled","fillcolor"="white","shape"="record"]
"/racine/enfantDroit/enfantDroit" ["label"="<_C>MonNoeud|{valeur|c}|{enfantGauche|null}|{enfantDroit|<enfantDroit_enfantDroit>}","style"="filled","fillcolor"="white","shape"="record"]
"/racine/enfantDroit/enfantDroit/enfantDroit" ["label"="<_C>MonNoeud|{valeur|d}|{enfantGauche|null}|{enfantDroit|<enfantDroit_enfantDroit>}","style"="filled","fillcolor"="white","shape"="record"]
"/racine/enfantDroit/enfantDroit/enfantDroit/enfantDroit" ["label"="<_C>MonNoeud|{valeur|e}|{enfantGauche|null}|{enfantDroit|null}","style"="filled","fillcolor"="white","shape"="record"]
"/":"racine_racine":c -> "/racine":"_C" ["tailclip"="false","arrowtail"="dot","dir"="both","label"=""]
"/racine":"enfantDroit_enfantDroit":c -> "/racine/enfantDroit":"_C" ["tailclip"="false","arrowtail"="dot","dir"="both","label"=""]
"/racine/enfantDroit":"enfantDroit_enfantDroit":c -> "/racine/enfantDroit/enfantDroit":"_C" ["tailclip"="false","arrowtail"="dot","dir"="both","label"=""]
"/racine/enfantDroit/enfantDroit":"enfantDroit_enfantDroit":c -> "/racine/enfantDroit/enfantDroit/enfantDroit":"_C" ["tailclip"="false","arrowtail"="dot","dir"="both","label"=""]
"/racine/enfantDroit/enfantDroit/enfantDroit":"enfantDroit_enfantDroit":c -> "/racine/enfantDroit/enfantDroit/enfantDroit/enfantDroit":"_C" ["tailclip"="false","arrowtail"="dot","dir"="both","label"=""]
}