{
  "_C": "ModeleFileAttente",
  "prochainIdRendezVous": 6,
  "rendezVousDansOrdre": [
    {
      "_C": "RendezVous",
      "premierJoueur": {
        "_C": "Joueur",
        "id": "1YMD",
        "nom": "Lagrois",
        "prenom": "Dominic"
      },
      "idRendezVous": "1"
    },
    {
      "_C": "RendezVousComplet",
      "deuxiemeJoueur": {
        "_C": "Joueur",
        "id": "gkbb",
        "nom": "Chaussé",
        "prenom": "Jun"
      },
      "idPartie": "2",
      "premierJoueur": {
        "_C": "Joueur",
        "id": "fLl4",
        "nom": "Abdenouri",
        "prenom": "Mehdi"
      },
      "idRendezVous": "2"
    }
  ]
}
