digraph "ModeleFileAttente" {
graph ["rankdir"="LR","compound"="true","ranksep"="1.0","nodesep"="1.0"]
"/" ["label"="<_C>ModeleFileAttente|{prochainIdRendezVous|3}|{rendezVousDansOrdre|<rendezVousDansOrdre_rendezVousDansOrdre>}","style"="filled","fillcolor"="white","shape"="record"]
"/rendezVousDansOrdre" ["label"="<_C>List|{0|<0_0>}|{1|<1_1>}","style"="filled","fillcolor"="white","shape"="record"]
"/rendezVousDansOrdre/0" ["label"="<_C>RendezVous|{idRendezVous|\"1\"}|{premierJoueur|<premierJoueur_premierJoueur>}","style"="filled","fillcolor"="white","shape"="record"]
"/rendezVousDansOrdre/0/premierJoueur" ["label"="<_C>Joueur|{id|\"ZQ6B\"}|{prenom|\"Dominic\"}|{nom|\"Lagrois\"}","style"="filled","fillcolor"="white","shape"="record"]
"/rendezVousDansOrdre/1" ["label"="<_C>RendezVousComplet|{idPartie|\"2\"}|{deuxiemeJoueur|<deuxiemeJoueur_deuxiemeJoueur>}|{idRendezVous|\"2\"}|{premierJoueur|<premierJoueur_premierJoueur>}","style"="filled","fillcolor"="white","shape"="record"]
"/rendezVousDansOrdre/1/deuxiemeJoueur" ["label"="<_C>Joueur|{id|\"NrPs\"}|{prenom|\"Chaaya\"}|{nom|\"Gonzales\"}","style"="filled","fillcolor"="white","shape"="record"]
"/rendezVousDansOrdre/1/premierJoueur" ["label"="<_C>Joueur|{id|\"UWmq\"}|{prenom|\"Mehdi\"}|{nom|\"Abdenouri\"}","style"="filled","fillcolor"="white","shape"="record"]
"/":"rendezVousDansOrdre_rendezVousDansOrdre":c -> "/rendezVousDansOrdre":"_C" ["tailclip"="false","arrowtail"="dot","dir"="both","label"=""]
"/rendezVousDansOrdre":"1_1":c -> "/rendezVousDansOrdre/1":"_C" ["tailclip"="false","arrowtail"="dot","dir"="both","label"=""]
"/rendezVousDansOrdre":"0_0":c -> "/rendezVousDansOrdre/0":"_C" ["tailclip"="false","arrowtail"="dot","dir"="both","label"=""]
"/rendezVousDansOrdre/0":"premierJoueur_premierJoueur":c -> "/rendezVousDansOrdre/0/premierJoueur":"_C" ["tailclip"="false","arrowtail"="dot","dir"="both","label"=""]
"/rendezVousDansOrdre/1":"premierJoueur_premierJoueur":c -> "/rendezVousDansOrdre/1/premierJoueur":"_C" ["tailclip"="false","arrowtail"="dot","dir"="both","label"=""]
"/rendezVousDansOrdre/1":"deuxiemeJoueur_deuxiemeJoueur":c -> "/rendezVousDansOrdre/1/deuxiemeJoueur":"_C" ["tailclip"="false","arrowtail"="dot","dir"="both","label"=""]
}