digraph "ListeChaineeSimple_test03_ok" {
graph ["rankdir"="LR","compound"="true","ranksep"="1.0","nodesep"="1.0"]
"/" ["label"="<_C>ListeChaineeSimple|{taille|4}|{tete|<tete_tete>}","style"="filled","fillcolor"="white","shape"="record"]
"/tete" ["label"="<_C>ElementChaineSimple|{valeur|k}|{suivant|<suivant_suivant>}","style"="filled","fillcolor"="white","shape"="record"]
"/tete/suivant" ["label"="<_C>ElementChaineSimple|{valeur|f}|{suivant|<suivant_suivant>}","style"="filled","fillcolor"="white","shape"="record"]
"/tete/suivant/suivant" ["label"="<_C>ElementChaineSimple|{valeur|x}|{suivant|<suivant_suivant>}","style"="filled","fillcolor"="white","shape"="record"]
"/tete/suivant/suivant/suivant" ["label"="<_C>ElementChaineSimple|{valeur|h}|{suivant|null}","style"="filled","fillcolor"="white","shape"="record"]
"/":"tete_tete":c -> "/tete":"_C" ["tailclip"="false","arrowtail"="dot","dir"="both","label"=""]
"/tete":"suivant_suivant":c -> "/tete/suivant":"_C" ["tailclip"="false","arrowtail"="dot","dir"="both","label"=""]
"/tete/suivant":"suivant_suivant":c -> "/tete/suivant/suivant":"_C" ["tailclip"="false","arrowtail"="dot","dir"="both","label"=""]
"/tete/suivant/suivant":"suivant_suivant":c -> "/tete/suivant/suivant/suivant":"_C" ["tailclip"="false","arrowtail"="dot","dir"="both","label"=""]
}