digraph "backend" {
edge ["dir"="forward"]
graph ["rankdir"="LR","compound"="true","overlap"="false"]
"model[ModeleFileAttente]" ["label"="model[ModeleFileAttente]","style"="filled","fillcolor"="white","shape"="box"]
subgraph "cluster_ModifierFileAttente__container" {
edge ["dir"="none"]
graph ["margin"="40","style"="invis"]
subgraph "cluster_ModifierFileAttente" {
edge ["dir"="forward"]
graph ["rankdir"="LR","label"="ModifierFileAttente","style"="filled","fillcolor"="gray","penwidth"="3.0","fontsize"="18.0"]
"ModifierFileAttente_message[MsgAjouterRendezVous]" ["label"="message[MsgAjouterRendezVous]","style"="filled","fillcolor"="white"]
"ModifierFileAttente_ajouterRendezVous" ["label"="ajouterRendezVous","style"="filled","fillcolor"="white","shape"="box"]
}
}
"model[ModeleFileAttente]" -> "ModifierFileAttente_message[MsgAjouterRendezVous]" ["label"="","lhead"="cluster_ModifierFileAttente"]
"ModifierFileAttente_message[MsgAjouterRendezVous]" -> "ModifierFileAttente_ajouterRendezVous" ["label"="","style"="dashed"]
}