digraph "DrNo" {
graph ["rankdir"="LR","compound"="true","ranksep"="1.0","nodesep"="1.0"]
"/" ["label"="<_C>DrNo|{personnages|<personnages_personnages>}|{titre|\"Dr. No\"}","style"="filled","fillcolor"="white","shape"="record"]
"/personnages" ["label"="<_C>List|{0|<0_0>}|{1|<1_1>}","style"="filled","fillcolor"="white","shape"="record"]
"/personnages/0" ["label"="<_C>Personnage|{films|<films_films>}|{nom|\"James Bond\"}","style"="filled","fillcolor"="white","shape"="record"]
"/personnages/0/films" ["label"="<_C>List|{0|<0_0>}|{1|<1_1>}","style"="filled","fillcolor"="white","shape"="record"]
"/personnages/0/films/1" ["label"="<_C>Film|{personnages|<personnages_personnages>}|{titre|\"Bons Baisers de Russie\"}","style"="filled","fillcolor"="white","shape"="record"]
"/personnages/0/films/1/personnages" ["label"="<_C>List|{0|<0_0>}|{1|<1_1>}","style"="filled","fillcolor"="white","shape"="record"]
"/personnages/0/films/1/personnages/1" ["label"="<_C>Personnage|{films|<films_films>}|{nom|\"Rosa Klebb\"}","style"="filled","fillcolor"="white","shape"="record"]
"/personnages/0/films/1/personnages/1/films" ["label"="<_C>List|{0|<0_0>}","style"="filled","fillcolor"="white","shape"="record"]
"/personnages/1" ["label"="<_C>Personnage|{films|<films_films>}|{nom|\"Docteur No\"}","style"="filled","fillcolor"="white","shape"="record"]
"/personnages/1/films" ["label"="<_C>List|{0|<0_0>}","style"="filled","fillcolor"="white","shape"="record"]
"/":"personnages_personnages":c -> "/personnages":"_C" ["tailclip"="false","arrowtail"="dot","dir"="both","label"=""]
"/personnages":"1_1":c -> "/personnages/1":"_C" ["tailclip"="false","arrowtail"="dot","dir"="both","label"=""]
"/personnages":"0_0":c -> "/personnages/0":"_C" ["tailclip"="false","arrowtail"="dot","dir"="both","label"=""]
"/personnages/0":"films_films":c -> "/personnages/0/films":"_C" ["tailclip"="false","arrowtail"="dot","dir"="both","label"=""]
"/personnages/0/films":"1_1":c -> "/personnages/0/films/1":"_C" ["tailclip"="false","arrowtail"="dot","dir"="both","label"=""]
"/personnages/0/films":"0_0":c -> "/":"_C" ["tailclip"="false","arrowtail"="dot","dir"="both","label"=""]
"/personnages/0/films/1":"personnages_personnages":c -> "/personnages/0/films/1/personnages":"_C" ["tailclip"="false","arrowtail"="dot","dir"="both","label"=""]
"/personnages/0/films/1/personnages":"1_1":c -> "/personnages/0/films/1/personnages/1":"_C" ["tailclip"="false","arrowtail"="dot","dir"="both","label"=""]
"/personnages/0/films/1/personnages":"0_0":c -> "/personnages/0":"_C" ["tailclip"="false","arrowtail"="dot","dir"="both","label"=""]
"/personnages/0/films/1/personnages/1":"films_films":c -> "/personnages/0/films/1/personnages/1/films":"_C" ["tailclip"="false","arrowtail"="dot","dir"="both","label"=""]
"/personnages/0/films/1/personnages/1/films":"0_0":c -> "/personnages/0/films/1":"_C" ["tailclip"="false","arrowtail"="dot","dir"="both","label"=""]
"/personnages/1":"films_films":c -> "/personnages/1/films":"_C" ["tailclip"="false","arrowtail"="dot","dir"="both","label"=""]
"/personnages/1/films":"0_0":c -> "/":"_C" ["tailclip"="false","arrowtail"="dot","dir"="both","label"=""]
}