digraph "MonTableau02" {
graph ["rankdir"="LR","compound"="true","ranksep"="1.0","nodesep"="1.0"]
"/" ["label"="<_C>MonTableau02|{cartes|[]}|{memoireB|null}|{insererAuDebut|true}|{i|-1}|{aDeplacer|0}|{memoireA|null}","style"="filled","fillcolor"="white","shape"="record"]
}