digraph "frontend" {
edge ["dir"="forward"]
graph ["rankdir"="LR","compound"="true","overlap"="false"]
"DonneesVuePartie" ["label"="DonneesVuePartie","style"="filled","fillcolor"="white","shape"="box"]
subgraph "cluster_ViewLoaders__container" {
edge ["dir"="none"]
graph ["margin"="40","style"="invis"]
subgraph "cluster_ViewLoaders" {
edge ["dir"="forward"]
graph ["rankdir"="LR","label"="ViewLoaders","style"="filled","fillcolor"="gray","penwidth"="3.0","fontsize"="18.0"]
"ViewLoaders_viewLoader[VueFileAttente]" ["label"="viewLoader[VueFileAttente]","style"="filled","fillcolor"="white","shape"="box"]
"ViewLoaders_viewLoader[FragmentUneLangue]" ["label"="viewLoader[FragmentUneLangue]","style"="filled","fillcolor"="white","shape"="box"]
"ViewLoaders_viewLoader[VuePartie]" ["label"="viewLoader[VuePartie]","style"="filled","fillcolor"="white","shape"="box"]
"ViewLoaders_viewLoader[FragmentRendezVous]" ["label"="viewLoader[FragmentRendezVous]","style"="filled","fillcolor"="white","shape"="box"]
"ViewLoaders_viewLoader[FragmentRendezVousComplet]" ["label"="viewLoader[FragmentRendezVousComplet]","style"="filled","fillcolor"="white","shape"="box"]
"ViewLoaders_viewLoader[VueRacine]" ["label"="viewLoader[VueRacine]","style"="filled","fillcolor"="white","shape"="box"]
}
}
subgraph "cluster_CreerVues__container" {
edge ["dir"="none"]
graph ["margin"="40","style"="invis"]
subgraph "cluster_CreerVues" {
edge ["dir"="forward"]
graph ["rankdir"="LR","label"="CreerVues","style"="filled","fillcolor"="gray","penwidth"="3.0","fontsize"="18.0"]
"CreerVues_VueFileAttente" ["label"="VueFileAttente","style"="filled","fillcolor"="white","shape"="box"]
"CreerVues_VueRacine" ["label"="VueRacine","style"="filled","fillcolor"="white","shape"="box"]
"CreerVues_VuePartie" ["label"="VuePartie","style"="filled","fillcolor"="white","shape"="box"]
}
}
subgraph "cluster_PremierAffichage__container" {
edge ["dir"="none"]
graph ["margin"="40","style"="invis"]
subgraph "cluster_PremierAffichage" {
edge ["dir"="forward"]
graph ["rankdir"="LR","label"="PremierAffichage","style"="filled","fillcolor"="gray","penwidth"="3.0","fontsize"="18.0"]
"PremierAffichage_window" ["label"="window","style"="filled","fillcolor"="white","shape"="box"]
"PremierAffichage_session[SessionPong]" ["label"="session[SessionPong]","style"="filled","fillcolor"="white","shape"="box"]
"PremierAffichage_afficherFenetre" ["label"="afficherFenetre","style"="filled","fillcolor"="white","shape"="box"]
"PremierAffichage_installerVueRacine" ["label"="installerVueRacine","style"="filled","fillcolor"="white","shape"="box"]
"PremierAffichage_choisirPremiereVue" ["label"="choisirPremiereVue","style"="filled","fillcolor"="white","shape"="box"]
}
}
subgraph "cluster_Navigation__container" {
edge ["dir"="none"]
graph ["margin"="40","style"="invis"]
subgraph "cluster_Navigation" {
edge ["dir"="forward"]
graph ["rankdir"="LR","label"="Navigation","style"="filled","fillcolor"="gray","penwidth"="3.0","fontsize"="18.0"]
"Navigation_event[EvtAfficherFileAttente]" ["label"="event[EvtAfficherFileAttente]","style"="filled","fillcolor"="white"]
"Navigation_afficherVueFileAttente" ["label"="afficherVueFileAttente","style"="filled","fillcolor"="white","shape"="box"]
"Navigation_event[EvtChangerTaillePolice]" ["label"="event[EvtChangerTaillePolice]","style"="filled","fillcolor"="white"]
"Navigation_afficherVuePartie" ["label"="afficherVuePartie","style"="filled","fillcolor"="white","shape"="box"]
"Navigation_event[EvtChangerLangue]" ["label"="event[EvtChangerLangue]","style"="filled","fillcolor"="white"]
"Navigation_changerTaillePolice" ["label"="changerTaillePolice","style"="filled","fillcolor"="white","shape"="box"]
"Navigation_event[EvtAfficherPartie]" ["label"="event[EvtAfficherPartie]","style"="filled","fillcolor"="white"]
"Navigation_changerLangue" ["label"="changerLangue","style"="filled","fillcolor"="white","shape"="box"]
}
}
subgraph "cluster_AfficherFileAttente__container" {
edge ["dir"="none"]
graph ["margin"="40","style"="invis"]
subgraph "cluster_AfficherFileAttente" {
edge ["dir"="forward"]
graph ["rankdir"="LR","label"="AfficherFileAttente","style"="filled","fillcolor"="gray","penwidth"="3.0","fontsize"="18.0"]
"AfficherFileAttente_event[EvtChangerRegion]" ["label"="event[EvtChangerRegion]","style"="filled","fillcolor"="white"]
"AfficherFileAttente_changerRegion" ["label"="changerRegion","style"="filled","fillcolor"="white","shape"="box"]
"AfficherFileAttente_modified[ModeleFileAttente]" ["label"="modified[ModeleFileAttente]","style"="filled","fillcolor"="white"]
"AfficherFileAttente_afficherFileAttente" ["label"="afficherFileAttente","style"="filled","fillcolor"="white","shape"="box"]
}
}
subgraph "cluster_AfficherPartie__container" {
edge ["dir"="none"]
graph ["margin"="40","style"="invis"]
subgraph "cluster_AfficherPartie" {
edge ["dir"="forward"]
graph ["rankdir"="LR","label"="AfficherPartie","style"="filled","fillcolor"="gray","penwidth"="3.0","fontsize"="18.0"]
"AfficherPartie_event[EvtClicSouris]" ["label"="event[EvtClicSouris]","style"="filled","fillcolor"="white"]
"AfficherPartie_reagirClicSouris" ["label"="reagirClicSouris","style"="filled","fillcolor"="white","shape"="box"]
"AfficherPartie_modified[ModelePartie]" ["label"="modified[ModelePartie]","style"="filled","fillcolor"="white"]
"AfficherPartie_afficherInfoPartie" ["label"="afficherInfoPartie","style"="filled","fillcolor"="white","shape"="box"]
"AfficherPartie_message[MsgActionAutreJoueur]" ["label"="message[MsgActionAutreJoueur]","style"="filled","fillcolor"="white"]
"AfficherPartie_prochaineBalle" ["label"="prochaineBalle","style"="filled","fillcolor"="white","shape"="box"]
"AfficherPartie_reagirActionAutreJoueur" ["label"="reagirActionAutreJoueur","style"="filled","fillcolor"="white","shape"="box"]
"AfficherPartie_reagirActionJoueur" ["label"="reagirActionJoueur","style"="filled","fillcolor"="white","shape"="box"]
"AfficherPartie_clock[nextTick]" ["label"="clock[nextTick]","style"="filled","fillcolor"="white"]
"AfficherPartie_event[EvtActionJoueur]" ["label"="event[EvtActionJoueur]","style"="filled","fillcolor"="white"]
"AfficherPartie_prochaineImagePartie" ["label"="prochaineImagePartie","style"="filled","fillcolor"="white","shape"="box"]
}
}
"DonneesVuePartie" -> "AfficherPartie_event[EvtClicSouris]" ["label"="","lhead"="cluster_AfficherPartie"]
"ViewLoaders_viewLoader[VueFileAttente]" -> "CreerVues_VueFileAttente" ["label"="","ltail"="cluster_ViewLoaders","lhead"="cluster_CreerVues","penwidth"="3"]
"CreerVues_VueFileAttente" -> "PremierAffichage_window" ["label"="","ltail"="cluster_CreerVues","lhead"="cluster_PremierAffichage","penwidth"="3"]
"PremierAffichage_window" -> "PremierAffichage_installerVueRacine" ["label"=""]
"PremierAffichage_window" -> "PremierAffichage_afficherFenetre" ["label"=""]
"PremierAffichage_window" -> "Navigation_event[EvtAfficherFileAttente]" ["label"="","ltail"="cluster_PremierAffichage","lhead"="cluster_Navigation","penwidth"="3"]
"Navigation_event[EvtAfficherFileAttente]" -> "Navigation_afficherVueFileAttente" ["label"="","style"="dashed"]
"Navigation_afficherVueFileAttente" -> "AfficherFileAttente_event[EvtChangerRegion]" ["label"="","lhead"="cluster_AfficherFileAttente"]
"AfficherFileAttente_event[EvtChangerRegion]" -> "AfficherFileAttente_changerRegion" ["label"="","style"="dashed"]
"AfficherFileAttente_modified[ModeleFileAttente]" -> "AfficherFileAttente_afficherFileAttente" ["label"="","style"="dashed"]
"Navigation_event[EvtChangerTaillePolice]" -> "Navigation_changerTaillePolice" ["label"="","style"="dashed"]
"Navigation_afficherVuePartie" -> "AfficherPartie_event[EvtClicSouris]" ["label"="","lhead"="cluster_AfficherPartie"]
"AfficherPartie_event[EvtClicSouris]" -> "AfficherPartie_reagirClicSouris" ["label"="","style"="dashed"]
"AfficherPartie_modified[ModelePartie]" -> "AfficherPartie_prochaineBalle" ["label"="","style"="dashed"]
"AfficherPartie_modified[ModelePartie]" -> "AfficherPartie_afficherInfoPartie" ["label"="","style"="dashed"]
"AfficherPartie_message[MsgActionAutreJoueur]" -> "AfficherPartie_reagirActionAutreJoueur" ["label"="","style"="dashed"]
"AfficherPartie_clock[nextTick]" -> "AfficherPartie_prochaineImagePartie" ["label"="","style"="dashed"]
"AfficherPartie_event[EvtActionJoueur]" -> "AfficherPartie_reagirActionJoueur" ["label"="","style"="dashed"]
"Navigation_event[EvtChangerLangue]" -> "Navigation_changerLangue" ["label"="","style"="dashed"]
"Navigation_event[EvtAfficherPartie]" -> "Navigation_afficherVuePartie" ["label"="","style"="dashed"]
"PremierAffichage_session[SessionPong]" -> "PremierAffichage_choisirPremiereVue" ["label"=""]
}