digraph "frontend" {
edge ["dir"="forward"]
graph ["rankdir"="LR","compound"="true","overlap"="false"]
subgraph "cluster_ViewLoaders__container" {
edge ["dir"="none"]
graph ["margin"="40","style"="invis"]
subgraph "cluster_ViewLoaders" {
edge ["dir"="forward"]
graph ["rankdir"="LR","label"="ViewLoaders","style"="filled","fillcolor"="gray","penwidth"="3.0","fontsize"="18.0"]
"ViewLoaders_viewLoader[VueFileAttente]" ["label"="viewLoader[VueFileAttente]","style"="filled","fillcolor"="white","shape"="box"]
"ViewLoaders_viewLoader[VuePartie]" ["label"="viewLoader[VuePartie]","style"="filled","fillcolor"="white","shape"="box"]
"ViewLoaders_viewLoader[VueRacine]" ["label"="viewLoader[VueRacine]","style"="filled","fillcolor"="white","shape"="box"]
}
}
subgraph "cluster_CreerVues__container" {
edge ["dir"="none"]
graph ["margin"="40","style"="invis"]
subgraph "cluster_CreerVues" {
edge ["dir"="forward"]
graph ["rankdir"="LR","label"="CreerVues","style"="filled","fillcolor"="gray","penwidth"="3.0","fontsize"="18.0"]
"CreerVues_VueFileAttente" ["label"="VueFileAttente","style"="filled","fillcolor"="white","shape"="box"]
"CreerVues_VueRacine" ["label"="VueRacine","style"="filled","fillcolor"="white","shape"="box"]
"CreerVues_VuePartie" ["label"="VuePartie","style"="filled","fillcolor"="white","shape"="box"]
}
}
subgraph "cluster_PremierAffichage__container" {
edge ["dir"="none"]
graph ["margin"="40","style"="invis"]
subgraph "cluster_PremierAffichage" {
edge ["dir"="forward"]
graph ["rankdir"="LR","label"="PremierAffichage","style"="filled","fillcolor"="gray","penwidth"="3.0","fontsize"="18.0"]
"PremierAffichage_window" ["label"="window","style"="filled","fillcolor"="white","shape"="box"]
"PremierAffichage_afficherFenetre" ["label"="afficherFenetre","style"="filled","fillcolor"="white","shape"="box"]
"PremierAffichage_installerVueRacine" ["label"="installerVueRacine","style"="filled","fillcolor"="white","shape"="box"]
"PremierAffichage_choisirPremiereVue" ["label"="choisirPremiereVue","style"="filled","fillcolor"="white","shape"="box"]
}
}
subgraph "cluster_Navigation__container" {
edge ["dir"="none"]
graph ["margin"="40","style"="invis"]
subgraph "cluster_Navigation" {
edge ["dir"="forward"]
graph ["rankdir"="LR","label"="Navigation","style"="filled","fillcolor"="gray","penwidth"="3.0","fontsize"="18.0"]
"Navigation_event[EvtAfficherFileAttente]" ["label"="event[EvtAfficherFileAttente]","style"="filled","fillcolor"="white"]
"Navigation_afficherVueFileAttente" ["label"="afficherVueFileAttente","style"="filled","fillcolor"="white","shape"="box"]
"Navigation_afficherVuePartie" ["label"="afficherVuePartie","style"="filled","fillcolor"="white","shape"="box"]
"Navigation_event[EvtAfficherPartie]" ["label"="event[EvtAfficherPartie]","style"="filled","fillcolor"="white"]
}
}
"ViewLoaders_viewLoader[VueFileAttente]" -> "CreerVues_VueFileAttente" ["label"="","ltail"="cluster_ViewLoaders","lhead"="cluster_CreerVues","penwidth"="3"]
"CreerVues_VueFileAttente" -> "PremierAffichage_window" ["label"="","ltail"="cluster_CreerVues","lhead"="cluster_PremierAffichage","penwidth"="3"]
"PremierAffichage_window" -> "PremierAffichage_installerVueRacine" ["label"=""]
"PremierAffichage_window" -> "PremierAffichage_afficherFenetre" ["label"=""]
"PremierAffichage_window" -> "Navigation_event[EvtAfficherFileAttente]" ["label"="","ltail"="cluster_PremierAffichage","lhead"="cluster_Navigation","penwidth"="3"]
"Navigation_event[EvtAfficherFileAttente]" -> "Navigation_afficherVueFileAttente" ["label"="","style"="dashed"]
"Navigation_event[EvtAfficherPartie]" -> "Navigation_afficherVuePartie" ["label"="","style"="dashed"]
}